{
  "prepare_queue": {
    "installed": [],
    "uninstalled": []
  },
  "config_munge": {
    "files": {}
  },
  "installed_plugins": {
    "cordova-plugin-camera": {
      "CAMERA_USAGE_DESCRIPTION": " ",
      "PHOTOLIBRARY_USAGE_DESCRIPTION": " ",
      "PACKAGE_NAME": "com.benditaessence.abbott.palacalle"
    },
    "cordova-plugin-device": {
      "PACKAGE_NAME": "com.benditaessence.abbott.palacalle"
    },
    "cordova-plugin-file": {
      "PACKAGE_NAME": "com.benditaessence.abbott.palacalle"
    },
    "cordova-plugin-file-transfer": {
      "PACKAGE_NAME": "com.benditaessence.abbott.palacalle"
    },
    "cordova-plugin-http": {
      "PACKAGE_NAME": "com.benditaessence.abbott.palacalle"
    },
    "cordova-plugin-network-information": {
      "PACKAGE_NAME": "com.benditaessence.abbott.palacalle"
    },
    "cordova-plugin-splashscreen": {
      "PACKAGE_NAME": "com.benditaessence.abbott.palacalle"
    },
    "cordova-plugin-statusbar": {
      "PACKAGE_NAME": "com.benditaessence.abbott.palacalle"
    },
    "cordova-plugin-whitelist": {
      "PACKAGE_NAME": "com.benditaessence.abbott.palacalle"
    },
    "cordova-sqlite-storage": {
      "PACKAGE_NAME": "com.benditaessence.abbott.palacalle"
    },
    "ionic-plugin-keyboard": {
      "PACKAGE_NAME": "com.benditaessence.abbott.palacalle"
    }
  },
  "dependent_plugins": {
    "cordova-plugin-compat": {
      "PACKAGE_NAME": "com.benditaessence.abbott.palacalle"
    }
  }
}